[ {
  "id" : "744b2c8f-6fe9-0339-45e4-ebc7d273893b",
  "name" : "renamed_from_id",
  "label" : "Id",
  "required" : false,
  "locked" : true,
  "validation_regex" : "",
  "allow_new_line" : false,
  "show_emoji_picker" : false,
  "type" : "text",
  "default" : null
}, {
  "id" : "67336ab8-0244-2fcd-2802-a8093905f888",
  "name" : "content_settings",
  "label" : "Content Settings",
  "required" : false,
  "locked" : false,
  "children" : [ {
    "id" : "52fbcac1-d4fa-3940-1ce8-a47d5894af95",
    "name" : "filter_option",
    "label" : "Filter Label Settings ",
    "required" : false,
    "locked" : false,
    "children" : [ {
      "id" : "aacc9d1b-9062-3059-e2eb-ce09b4013c30",
      "name" : "show_",
      "label" : "Display Filter Label?",
      "required" : false,
      "locked" : false,
      "type" : "boolean",
      "default" : true
    }, {
      "id" : "0d2ac09d-8a98-fa11-6906-58fa385b0409",
      "name" : "pos_label",
      "label" : "Filter Label",
      "required" : false,
      "locked" : false,
      "validation_regex" : "",
      "visibility" : {
        "controlling_field" : "aacc9d1b-9062-3059-e2eb-ce09b4013c30",
        "controlling_value_regex" : "true",
        "operator" : "EQUAL",
        "access" : null,
        "hidden_subfields" : null
      },
      "allow_new_line" : false,
      "show_emoji_picker" : false,
      "type" : "text",
      "default" : "Filter"
    } ],
    "tab" : "CONTENT",
    "type" : "group",
    "default" : {
      "show_" : true,
      "pos_label" : "Filter"
    }
  }, {
    "id" : "7d6b2e83-d454-48e9-ce1b-afae57301844",
    "name" : "position_options",
    "label" : "Position Settings",
    "required" : false,
    "locked" : false,
    "children" : [ {
      "id" : "54a1ff5f-a631-a6a2-e239-90b9d257720b",
      "name" : "show_",
      "label" : "Display Position Filter?",
      "required" : false,
      "locked" : false,
      "type" : "boolean",
      "default" : true
    }, {
      "id" : "f42e95f7-8b24-354f-0256-7250d19756df",
      "name" : "pos_label",
      "label" : "Position Label",
      "required" : false,
      "locked" : true,
      "validation_regex" : "",
      "visibility" : {
        "controlling_field" : "54a1ff5f-a631-a6a2-e239-90b9d257720b",
        "controlling_value_regex" : "true",
        "operator" : "EQUAL",
        "access" : null,
        "hidden_subfields" : null
      },
      "allow_new_line" : false,
      "show_emoji_picker" : false,
      "type" : "text",
      "default" : "Position"
    } ],
    "tab" : "CONTENT",
    "type" : "group",
    "default" : {
      "show_" : true,
      "pos_label" : "Position"
    }
  }, {
    "id" : "e5c019d2-d203-8774-54d1-a5599c8a9ab7",
    "name" : "location_options",
    "label" : "Location Settings",
    "required" : false,
    "locked" : false,
    "children" : [ {
      "id" : "eacc0bc6-7069-77b4-7800-10e6298ce0e5",
      "name" : "show_",
      "label" : "Display Location Filter?",
      "required" : false,
      "locked" : false,
      "type" : "boolean",
      "default" : true
    }, {
      "id" : "ed103f98-ab76-69c7-0777-bed5b8a92b30",
      "name" : "pos_label",
      "label" : "Location Label",
      "required" : false,
      "locked" : true,
      "validation_regex" : "",
      "visibility" : {
        "controlling_field" : "eacc0bc6-7069-77b4-7800-10e6298ce0e5",
        "controlling_value_regex" : "true",
        "operator" : "EQUAL",
        "access" : null,
        "hidden_subfields" : null
      },
      "allow_new_line" : false,
      "show_emoji_picker" : false,
      "type" : "text",
      "default" : "Location"
    } ],
    "tab" : "CONTENT",
    "type" : "group",
    "default" : {
      "show_" : true,
      "pos_label" : "Location"
    }
  }, {
    "id" : "bf4865b2-8750-a909-a4dc-9f49826e40e8",
    "name" : "interest_options",
    "label" : "Interest Settings",
    "required" : false,
    "locked" : false,
    "children" : [ {
      "id" : "d60f3f84-4e78-b4d6-6342-8b65bb722bb9",
      "name" : "show_",
      "label" : "Display Interest Filter?",
      "required" : false,
      "locked" : false,
      "type" : "boolean",
      "default" : true
    }, {
      "id" : "16a54976-7072-3cb1-5c2d-98e682376ee0",
      "name" : "pos_label",
      "label" : "Interest Label",
      "required" : false,
      "locked" : true,
      "validation_regex" : "",
      "visibility" : {
        "controlling_field" : "d60f3f84-4e78-b4d6-6342-8b65bb722bb9",
        "controlling_value_regex" : "true",
        "operator" : "EQUAL",
        "access" : null,
        "hidden_subfields" : null
      },
      "allow_new_line" : false,
      "show_emoji_picker" : false,
      "type" : "text",
      "default" : "Interest"
    } ],
    "tab" : "CONTENT",
    "type" : "group",
    "default" : {
      "show_" : true,
      "pos_label" : "Interest"
    }
  }, {
    "id" : "7e9dc45a-dcdc-1216-276d-1720996a6a46",
    "name" : "list_items",
    "label" : "Team Member List",
    "required" : false,
    "locked" : false,
    "occurrence" : {
      "min" : null,
      "max" : null,
      "sorting_label_field" : "",
      "default" : 1
    },
    "children" : [ {
      "id" : "b4e88fee-03d9-4081-127f-1f1407f9b254",
      "name" : "author_name",
      "label" : "Name",
      "help_text" : "",
      "required" : false,
      "locked" : false,
      "validation_regex" : "",
      "placeholder" : "Author's name",
      "allow_new_line" : false,
      "show_emoji_picker" : false,
      "type" : "text",
      "default" : "Emily Jacobson"
    }, {
      "id" : "eaacd64e-8971-b545-3ccd-8c37017e5373",
      "name" : "image",
      "label" : "Image",
      "help_text" : "Recommended image size is 200x200 pixels",
      "required" : false,
      "locked" : false,
      "responsive" : true,
      "resizable" : false,
      "type" : "image",
      "default" : {
        "size_type" : "auto",
        "src" : "https://cdn2.hubspot.net/hubfs/224957/Emily-Jacobson.png",
        "alt" : "Emily-Jacobson",
        "width" : 320,
        "height" : 320,
        "max_width" : 320,
        "max_height" : 320
      }
    }, {
      "id" : "6667588c-9f64-5194-3254-291972c79e53",
      "name" : "position",
      "label" : "Position",
      "help_text" : "",
      "required" : false,
      "locked" : false,
      "validation_regex" : "",
      "placeholder" : "Author's name",
      "allow_new_line" : false,
      "show_emoji_picker" : false,
      "type" : "text",
      "default" : "Account Executive"
    }, {
      "id" : "29a0520a-ca7a-0b85-81cd-ede556cf7fc9",
      "name" : "location",
      "label" : "Location",
      "help_text" : "",
      "required" : false,
      "locked" : false,
      "validation_regex" : "",
      "placeholder" : "Author's name",
      "allow_new_line" : false,
      "show_emoji_picker" : false,
      "type" : "text",
      "default" : "New York"
    }, {
      "id" : "84ead099-c701-517b-9fa7-a8450176bd6f",
      "name" : "interest",
      "label" : "Interest",
      "help_text" : "",
      "required" : false,
      "locked" : false,
      "validation_regex" : "",
      "placeholder" : "Author's name",
      "allow_new_line" : false,
      "show_emoji_picker" : false,
      "type" : "text",
      "default" : "Interest 1"
    }, {
      "id" : "87f72e96-cc75-96bf-0893-59a8f945a746",
      "name" : "add_redirect",
      "label" : "Link to a Lading Page?",
      "required" : false,
      "locked" : false,
      "type" : "boolean",
      "default" : false
    }, {
      "id" : "46d89568-d20b-7a21-b69f-2a0d30fab84a",
      "name" : "url_field",
      "label" : "Link Settings",
      "required" : false,
      "locked" : false,
      "visibility" : {
        "controlling_field" : "87f72e96-cc75-96bf-0893-59a8f945a746",
        "controlling_value_regex" : "true",
        "operator" : "EQUAL",
        "access" : null,
        "hidden_subfields" : null
      },
      "supported_types" : [ "EXTERNAL", "CONTENT", "FILE", "EMAIL_ADDRESS", "BLOG" ],
      "type" : "link",
      "default" : {
        "url" : {
          "content_id" : null,
          "type" : "EXTERNAL",
          "href" : ""
        },
        "open_in_new_tab" : false,
        "no_follow" : false
      }
    } ],
    "tab" : "CONTENT",
    "type" : "group",
    "default" : [ {
      "author_name" : "Emily Jacobson",
      "image" : {
        "size_type" : "auto",
        "src" : "https://cdn2.hubspot.net/hubfs/224957/Emily-Jacobson.png",
        "alt" : "Emily-Jacobson",
        "width" : 320,
        "height" : 320,
        "max_width" : 320,
        "max_height" : 320
      },
      "position" : "Account Executive",
      "location" : "New York",
      "interest" : "Interest 1",
      "add_redirect" : false,
      "link_field" : {
        "url" : {
          "content_id" : null,
          "type" : "EXTERNAL",
          "href" : ""
        },
        "open_in_new_tab" : false,
        "no_follow" : false
      }
    } ]
  }, {
    "id" : "844a3ed6-2fe6-dcd0-24eb-0e977c918ca8",
    "name" : "banner_group",
    "label" : "Banner Group Settings",
    "required" : false,
    "locked" : false,
    "children" : [ {
      "id" : "34b517c6-4e11-e9c6-c466-78ba1248d0ba",
      "name" : "tag",
      "label" : "Tag",
      "help_text" : "Max recommended character limit: 70",
      "required" : false,
      "locked" : false,
      "validation_regex" : "",
      "allow_new_line" : false,
      "show_emoji_picker" : false,
      "type" : "text",
      "default" : "Join Our Team"
    }, {
      "id" : "ef63a3a4-3952-f16a-ef0d-27846f887521",
      "name" : "title",
      "label" : "Title",
      "help_text" : "Max recommended character count: 27",
      "required" : false,
      "locked" : false,
      "validation_regex" : "",
      "allow_new_line" : false,
      "show_emoji_picker" : false,
      "type" : "text",
      "default" : "See yourself in this squad?"
    }, {
      "id" : "686c275f-a169-7c14-5c6d-2ca0a01ebff8",
      "name" : "content",
      "label" : "Content",
      "help_text" : "Max recommended character limit: 82",
      "required" : false,
      "locked" : false,
      "validation_regex" : "",
      "allow_new_line" : false,
      "show_emoji_picker" : false,
      "type" : "text",
      "default" : "See yourself in this squad?"
    }, {
      "id" : "2ddced24-6c55-3d29-f5f5-bfc9f852b9a3",
      "name" : "cta",
      "label" : "CTA",
      "required" : false,
      "locked" : false,
      "type" : "cta",
      "default" : "ec4bf599-f86c-4109-a176-c55aa3a69b20"
    } ],
    "tab" : "CONTENT",
    "type" : "group",
    "default" : {
      "tag" : "Join Our Team",
      "title" : "See yourself in this squad?",
      "content" : "See yourself in this squad?",
      "cta" : "ec4bf599-f86c-4109-a176-c55aa3a69b20"
    }
  } ],
  "tab" : "CONTENT",
  "type" : "group",
  "default" : {
    "filter_option" : {
      "show_" : true,
      "pos_label" : "Filter"
    },
    "position_options" : {
      "show_" : true,
      "pos_label" : "Position"
    },
    "location_options" : {
      "show_" : true,
      "pos_label" : "Location"
    },
    "interest_options" : {
      "show_" : true,
      "pos_label" : "Interest"
    },
    "list_items" : [ {
      "author_name" : "Emily Jacobson",
      "image" : {
        "size_type" : "auto",
        "src" : "https://cdn2.hubspot.net/hubfs/224957/Emily-Jacobson.png",
        "alt" : "Emily-Jacobson",
        "width" : 320,
        "height" : 320,
        "max_width" : 320,
        "max_height" : 320
      },
      "position" : "Account Executive",
      "location" : "New York",
      "interest" : "Interest 1",
      "add_redirect" : false,
      "link_field" : {
        "url" : {
          "content_id" : null,
          "type" : "EXTERNAL",
          "href" : ""
        },
        "open_in_new_tab" : false,
        "no_follow" : false
      }
    } ],
    "banner_group" : {
      "tag" : "Join Our Team",
      "title" : "See yourself in this squad?",
      "content" : "See yourself in this squad?",
      "cta" : "ec4bf599-f86c-4109-a176-c55aa3a69b20"
    }
  }
}, {
  "id" : "c3da41d4-a7d3-4238-66de-232c11ea1d5f",
  "name" : "styles",
  "label" : "Background Settings ",
  "required" : false,
  "locked" : false,
  "children" : [ {
    "id" : "8e37bcc0-30cf-403c-586d-fb32e63f74b8",
    "name" : "background_type",
    "label" : "Background Type",
    "required" : false,
    "locked" : false,
    "display" : "select",
    "choices" : [ [ "nf_bg-color", "Color" ], [ "nf_bg-gradient", "Gradient" ], [ "nf_bg-image", "Image" ] ],
    "type" : "choice",
    "default" : "nf_bg-color"
  }, {
    "id" : "3ad839b0-ed00-4e88-19aa-82f053b372c5",
    "name" : "background_color",
    "label" : "Background Color",
    "required" : false,
    "locked" : false,
    "visibility" : {
      "controlling_field" : "8e37bcc0-30cf-403c-586d-fb32e63f74b8",
      "controlling_value_regex" : "nf_bg-color",
      "operator" : "EQUAL",
      "access" : null,
      "hidden_subfields" : null
    },
    "type" : "color",
    "default" : {
      "color" : "#ffffff",
      "opacity" : 100
    }
  }, {
    "id" : "73c4f17a-83b2-57cf-0e1a-aafccd9d22e2",
    "name" : "gradient_top_color",
    "label" : "Gradient Top Color",
    "required" : false,
    "locked" : false,
    "visibility" : {
      "controlling_field" : "8e37bcc0-30cf-403c-586d-fb32e63f74b8",
      "controlling_value_regex" : "nf_bg-gradient",
      "operator" : "EQUAL",
      "access" : null,
      "hidden_subfields" : null
    },
    "type" : "color",
    "default" : {
      "color" : "#ffffff",
      "opacity" : 50
    }
  }, {
    "id" : "75173f21-7d6e-8981-1069-9597fa98abc4",
    "name" : "gradient_bottom_color",
    "label" : "Gradient Bottom Color",
    "required" : false,
    "locked" : false,
    "visibility" : {
      "controlling_field" : "8e37bcc0-30cf-403c-586d-fb32e63f74b8",
      "controlling_value_regex" : "nf_bg-gradient",
      "operator" : "EQUAL",
      "access" : null,
      "hidden_subfields" : null
    },
    "type" : "color",
    "default" : {
      "color" : "#ffffff",
      "opacity" : 100
    }
  }, {
    "id" : "149775ed-f26a-0d13-f9a5-7da0036aee66",
    "name" : "background_image",
    "label" : "Background Image",
    "required" : false,
    "locked" : false,
    "visibility" : {
      "controlling_field" : "8e37bcc0-30cf-403c-586d-fb32e63f74b8",
      "controlling_value_regex" : "nf_bg-image",
      "operator" : "EQUAL",
      "access" : null,
      "hidden_subfields" : null
    },
    "responsive" : false,
    "resizable" : true,
    "type" : "image",
    "default" : {
      "src" : "https://cdn2.hubspot.net/hubfs/3894104/heroshot-servers.png",
      "alt" : "heroshot-servers",
      "width" : 1400,
      "height" : 895
    }
  }, {
    "id" : "ed91dc4c-3e71-08a3-042d-248c85d3f8b5",
    "name" : "add_overlay",
    "label" : "Add Overlay",
    "required" : false,
    "locked" : true,
    "visibility" : {
      "controlling_field" : "8e37bcc0-30cf-403c-586d-fb32e63f74b8",
      "controlling_value_regex" : "nf_bg-image",
      "operator" : "EQUAL",
      "access" : null,
      "hidden_subfields" : null
    },
    "type" : "boolean",
    "default" : false
  }, {
    "id" : "12c1ad6d-700e-a5f9-1e6d-7e5910eb7112",
    "name" : "overlay",
    "label" : "Overlay",
    "required" : false,
    "locked" : true,
    "visibility" : {
      "controlling_field" : "8e37bcc0-30cf-403c-586d-fb32e63f74b8",
      "controlling_value_regex" : "nf_bg-image",
      "operator" : "EQUAL",
      "access" : null,
      "hidden_subfields" : null
    },
    "children" : [ {
      "id" : "3d1f8249-1ff0-e39d-3d8b-ab336231b2ca",
      "name" : "overlay_color",
      "label" : "Overlay Color",
      "required" : false,
      "locked" : true,
      "visibility" : {
        "controlling_field" : "ed91dc4c-3e71-08a3-042d-248c85d3f8b5",
        "controlling_value_regex" : "true",
        "operator" : "EQUAL",
        "access" : null,
        "hidden_subfields" : null
      },
      "type" : "color",
      "default" : {
        "color" : "#ffffff",
        "opacity" : 100
      }
    } ],
    "tab" : "CONTENT",
    "type" : "group",
    "default" : {
      "overlay_color" : {
        "color" : "#ffffff",
        "opacity" : 100
      }
    }
  }, {
    "id" : "cf44da5a-d1bd-0c86-c716-31c2a3be9e4d",
    "name" : "background_position",
    "label" : "Background Position",
    "required" : false,
    "locked" : false,
    "visibility" : {
      "controlling_field" : "8e37bcc0-30cf-403c-586d-fb32e63f74b8",
      "controlling_value_regex" : "nf_bg-image",
      "operator" : "EQUAL",
      "access" : null,
      "hidden_subfields" : null
    },
    "display" : "select",
    "choices" : [ [ "center top", "Top Middle" ], [ "center", "Center" ], [ "top right", "Top Right" ], [ "right center", "Right Middle" ], [ "right bottom", "Bottom Right" ], [ "left top", "Top Left" ], [ "left center", "Left Middle" ], [ "left bottom", "Bottom Left" ], [ "custom", "Custom" ] ],
    "type" : "choice",
    "default" : null
  }, {
    "id" : "42b58938-c84f-f318-85a7-9dfe5d56f3b8",
    "name" : "x_position",
    "label" : "Custom left/right position",
    "required" : false,
    "locked" : false,
    "visibility" : {
      "controlling_field" : "8e37bcc0-30cf-403c-586d-fb32e63f74b8",
      "controlling_value_regex" : "nf_bg-image",
      "operator" : "EQUAL",
      "access" : null,
      "hidden_subfields" : null
    },
    "display" : "text",
    "min" : 0,
    "max" : 100,
    "step" : 1,
    "type" : "number",
    "default" : 50
  }, {
    "id" : "6bfd5f18-4d7b-1d9a-4553-229bbe037d0a",
    "name" : "y_position",
    "label" : "Custom top/bottom position",
    "required" : false,
    "locked" : false,
    "visibility" : {
      "controlling_field" : "8e37bcc0-30cf-403c-586d-fb32e63f74b8",
      "controlling_value_regex" : "nf_bg-image",
      "operator" : "EQUAL",
      "access" : null,
      "hidden_subfields" : null
    },
    "display" : "text",
    "min" : 0,
    "max" : 100,
    "step" : 1,
    "type" : "number",
    "default" : 50
  } ],
  "tab" : "CONTENT",
  "type" : "group",
  "default" : {
    "background_type" : "nf_bg-color",
    "background_color" : {
      "color" : "#ffffff",
      "opacity" : 100
    },
    "gradient_top_color" : {
      "color" : "#ffffff",
      "opacity" : 50
    },
    "gradient_bottom_color" : {
      "color" : "#ffffff",
      "opacity" : 100
    },
    "background_image" : {
      "src" : "https://cdn2.hubspot.net/hubfs/3894104/heroshot-servers.png",
      "alt" : "heroshot-servers",
      "width" : 1400,
      "height" : 895
    },
    "add_overlay" : false,
    "overlay" : {
      "overlay_color" : {
        "color" : "#ffffff",
        "opacity" : 100
      }
    },
    "x_position" : 50,
    "y_position" : 50
  }
}, {
  "id" : "022c7360-9539-519d-67f5-e216ce26fd2c",
  "name" : "general_settings",
  "label" : "General Settings",
  "required" : false,
  "locked" : false,
  "children" : [ {
    "id" : "4491cc28-972d-ff4e-79f0-8d163fca0714",
    "name" : "adjust_section_height_and_spacing",
    "label" : "Adjust Section Height and Spacing",
    "required" : false,
    "locked" : false,
    "children" : [ {
      "id" : "8839cf1b-94e9-8bf1-1821-0041a0cbc5b6",
      "name" : "height",
      "label" : "Height",
      "required" : false,
      "locked" : false,
      "display" : "text",
      "min" : 0,
      "max" : 1024,
      "step" : 1,
      "type" : "number",
      "default" : 500
    }, {
      "id" : "6bcdb4b5-29be-c8b7-bd26-0d44149b059b",
      "name" : "padding_top",
      "label" : "Padding Top",
      "required" : false,
      "locked" : false,
      "display" : "slider",
      "min" : 0,
      "max" : 1000,
      "step" : 1,
      "type" : "number",
      "default" : 70
    }, {
      "id" : "f10e2d9b-ce38-7ddc-aecd-9b0ba7ba011c",
      "name" : "padding_bottom",
      "label" : "Padding Bottom",
      "required" : false,
      "locked" : false,
      "display" : "slider",
      "min" : 0,
      "max" : 1000,
      "step" : 1,
      "type" : "number",
      "default" : 70
    } ],
    "tab" : "CONTENT",
    "type" : "group",
    "default" : {
      "height" : 500,
      "padding_top" : 70,
      "padding_bottom" : 70
    }
  } ],
  "tab" : "CONTENT",
  "type" : "group",
  "default" : {
    "adjust_section_height_and_spacing" : {
      "height" : 500,
      "padding_top" : 70,
      "padding_bottom" : 70
    }
  }
}, {
  "id" : "b935d5bc-7f6c-9815-a29b-d72284fa2e76",
  "name" : "pagination_settings",
  "label" : "Pagination Settings",
  "required" : false,
  "locked" : true,
  "children" : [ {
    "id" : "0ce7716c-082b-ef48-b314-7b5c328d796f",
    "name" : "left_text",
    "label" : "Left Text",
    "required" : false,
    "locked" : false,
    "validation_regex" : "",
    "allow_new_line" : false,
    "show_emoji_picker" : false,
    "type" : "text",
    "default" : "Prev"
  }, {
    "id" : "bdce121e-54bd-7fcd-4c1e-8b25f428cc30",
    "name" : "right_text",
    "label" : "Right Text",
    "required" : false,
    "locked" : false,
    "validation_regex" : "",
    "allow_new_line" : false,
    "show_emoji_picker" : false,
    "type" : "text",
    "default" : "Next"
  }, {
    "id" : "74f7787c-19fc-f054-cae1-9d59682d2405",
    "name" : "item_to_display",
    "label" : "Item To display",
    "required" : false,
    "locked" : false,
    "display" : "text",
    "min" : 1,
    "max" : 50,
    "step" : 1,
    "type" : "number",
    "default" : 10
  }, {
    "id" : "69daa08c-55cd-2d95-3409-772813bb7c20",
    "name" : "field_group",
    "label" : "Banner Position",
    "required" : false,
    "locked" : false,
    "children" : [ {
      "id" : "540da273-82c2-f27d-5121-7a4beb51e2b1",
      "name" : "banner_position_desktop",
      "label" : "Banner Position Desktop",
      "required" : false,
      "locked" : false,
      "display" : "text",
      "min" : 1,
      "step" : 1,
      "type" : "number",
      "default" : 13
    }, {
      "id" : "f5b6b8f3-cad2-ce34-ec4f-c8ff04d19b93",
      "name" : "banner_position_tablet",
      "label" : "Banner Position Tablet",
      "required" : false,
      "locked" : false,
      "display" : "text",
      "min" : 1,
      "step" : 1,
      "type" : "number",
      "default" : 13
    }, {
      "id" : "d59527a7-b728-f6a7-a1cb-d8aca1b1cef0",
      "name" : "banner_position_mobile",
      "label" : "Banner Position Mobile",
      "required" : false,
      "locked" : false,
      "display" : "text",
      "min" : 1,
      "step" : 1,
      "type" : "number",
      "default" : 5
    } ],
    "tab" : "CONTENT",
    "type" : "group",
    "default" : {
      "banner_position_desktop" : 13,
      "banner_position_tablet" : 13,
      "banner_position_mobile" : 5
    }
  } ],
  "tab" : "CONTENT",
  "type" : "group",
  "default" : {
    "left_text" : "Prev",
    "right_text" : "Next",
    "item_to_display" : 10,
    "field_group" : {
      "banner_position_desktop" : 13,
      "banner_position_tablet" : 13,
      "banner_position_mobile" : 5
    }
  }
} ]