{
  "content_tags" : [ ],
  "css_assets" : [ ],
  "external_js" : [ ],
  "extra_classes" : "",
  "global" : false,
  "host_template_types" : [ "PAGE", "BLOG_POST", "BLOG_LISTING" ],
  "js_assets" : [ ],
  "other_assets" : [ ],
  "placement_rules" : [ ],
  "smart_type" : "NOT_SMART",
  "module_id" : 8205736,
  "is_available_for_new_content" : true
}