[ {
  "id" : "8c9c6c61-d17b-0671-9b1a-70756407a3f6",
  "name" : "section_id",
  "label" : "Section ID",
  "required" : false,
  "locked" : true,
  "validation_regex" : "",
  "allow_new_line" : false,
  "show_emoji_picker" : false,
  "type" : "text",
  "default" : null
}, {
  "id" : "3a0c0657-554b-29e9-4466-3399cbd43af8",
  "name" : "section_height",
  "label" : "Section Height",
  "required" : false,
  "locked" : false,
  "display" : "slider",
  "min" : 817,
  "max" : 1024,
  "step" : 1,
  "type" : "number",
  "default" : 817
}, {
  "id" : "0d6f04b7-a7c6-3005-320e-5bc630f4a9db",
  "name" : "padding_top",
  "label" : "Padding Top",
  "required" : false,
  "locked" : false,
  "display" : "slider",
  "min" : 0,
  "max" : 1000,
  "step" : 1,
  "type" : "number",
  "default" : 80
}, {
  "id" : "a1cb5828-7395-6fa2-407e-ac1035f27e57",
  "name" : "padding_bottom",
  "label" : "Padding Bottom",
  "required" : false,
  "locked" : false,
  "display" : "slider",
  "min" : 0,
  "max" : 1000,
  "step" : 1,
  "type" : "number",
  "default" : 80
}, {
  "id" : "f708eb52-1660-83f8-7b53-97e592058f26",
  "name" : "text_content",
  "label" : "Text Content",
  "required" : false,
  "locked" : false,
  "children" : [ {
    "id" : "5b6d003e-74ec-4fef-4a20-339af9de2b02",
    "name" : "enable_rich_text_content",
    "label" : "Enable Rich Text Content",
    "required" : false,
    "locked" : false,
    "type" : "boolean",
    "default" : true
  }, {
    "id" : "3952bf0b-7867-f84b-8b43-d32fc02ca2ab",
    "name" : "richtext_content",
    "label" : "Content",
    "required" : false,
    "locked" : false,
    "type" : "richtext",
    "default" : "<h2>Why Would a Second Look be Useful?</h2>\n<ul>\n<li>20% of all devices in any given network infrastructure are not<br>covered by SLAs.</li>\n<li>95% of all OEM contracts can be consolidated, SLA aligned, and<br>centrally managed.</li>\n<li>75-95% of devices can be covered independently with 0 change in<br>support deliverable (TAC + HW Replacement + Software Support).</li>\n<li>12% of all devices that receive SLA entitlement are already covered<br>by free OEM services.</li>\n<li>Your OEM is not obligaged to notify you about over coverage.</li>\n</ul>"
  } ],
  "tab" : "CONTENT",
  "type" : "group",
  "default" : {
    "enable_rich_text_content" : true,
    "richtext_content" : "<h2>Why Would a Second Look be Useful?</h2>\n<ul>\n<li>20% of all devices in any given network infrastructure are not<br>covered by SLAs.</li>\n<li>95% of all OEM contracts can be consolidated, SLA aligned, and<br>centrally managed.</li>\n<li>75-95% of devices can be covered independently with 0 change in<br>support deliverable (TAC + HW Replacement + Software Support).</li>\n<li>12% of all devices that receive SLA entitlement are already covered<br>by free OEM services.</li>\n<li>Your OEM is not obligaged to notify you about over coverage.</li>\n</ul>"
  }
}, {
  "id" : "1ec8aeac-8e16-98e4-378b-6568fa2f6601",
  "name" : "enable_form_content",
  "label" : "Enable Form Content",
  "required" : false,
  "locked" : false,
  "type" : "boolean",
  "default" : true
}, {
  "id" : "dd9fa781-1b9d-e0d0-ba1f-0de629f59ee2",
  "name" : "image_icon",
  "label" : "Image Icon",
  "required" : false,
  "locked" : false,
  "responsive" : false,
  "resizable" : true,
  "type" : "image",
  "default" : {
    "src" : "https://cdn2.hubspot.net/hubfs/3894104/Module%20Assets/illustration.png",
    "alt" : "illustration",
    "width" : 68,
    "height" : 84
  }
}, {
  "id" : "e355a361-931b-ac2a-d06f-244ef8e3a1ca",
  "name" : "title",
  "label" : "Form Title",
  "required" : false,
  "locked" : false,
  "validation_regex" : "",
  "allow_new_line" : false,
  "show_emoji_picker" : false,
  "type" : "text",
  "default" : "Request a Proposal"
}, {
  "id" : "db4758cd-c835-4849-aac3-8bc22275d932",
  "name" : "sub_title",
  "label" : "Sub title",
  "required" : false,
  "locked" : false,
  "type" : "richtext",
  "default" : "Fill out the information below and one of<br>our experts will reach out to you."
}, {
  "id" : "e4adbe47-d462-2396-c7e7-62d52c812966",
  "name" : "form",
  "label" : "Form",
  "required" : false,
  "locked" : false,
  "type" : "form",
  "default" : {
    "response_type" : "inline",
    "message" : "Thanks for submitting the form.",
    "form_type" : "HUBSPOT"
  }
}, {
  "id" : "96a2942d-c746-0299-c0a9-6b16d7a20c1d",
  "name" : "notifications_are_overridden",
  "label" : "Send form notifications to specified email addresses instead of the form defaults",
  "required" : true,
  "locked" : true,
  "visibility" : {
    "controlling_field" : "e4adbe47-d462-2396-c7e7-62d52c812966",
    "controlling_value_regex" : "\\\"form_type\\\":\\\"HUBSPOT\\\"",
    "operator" : "MATCHES_REGEX",
    "access" : null,
    "hidden_subfields" : null
  },
  "type" : "boolean",
  "default" : false
}, {
  "id" : "e496f0fb-4c96-8a5f-5fa3-54a5838f02a2",
  "name" : "notifications_override_email_addresses",
  "label" : "Email Addresses",
  "required" : false,
  "locked" : true,
  "visibility" : {
    "controlling_field" : "96a2942d-c746-0299-c0a9-6b16d7a20c1d",
    "controlling_value_regex" : "true",
    "operator" : "MATCHES_REGEX",
    "access" : null,
    "hidden_subfields" : null
  },
  "type" : "email",
  "default" : null
}, {
  "id" : "fc055bb2-4052-dee0-a007-2dc5a6bfe906",
  "name" : "follow_up_type_automation",
  "label" : "Add to workflow",
  "required" : true,
  "locked" : true,
  "visibility" : {
    "controlling_field" : null,
    "controlling_value_regex" : null,
    "operator" : "NOT_EMPTY",
    "access" : {
      "operator" : "HAS_ALL",
      "scopes" : [ "workflows-access" ]
    },
    "hidden_subfields" : null
  },
  "type" : "boolean",
  "default" : false
}, {
  "id" : "1fbfa2b1-63d5-f8a8-098f-b4180617b9a8",
  "name" : "form_follow_ups_workflow_id",
  "label" : "Workflow",
  "required" : false,
  "locked" : true,
  "visibility" : {
    "controlling_field" : "fc055bb2-4052-dee0-a007-2dc5a6bfe906",
    "controlling_value_regex" : "true",
    "operator" : "MATCHES_REGEX",
    "access" : null,
    "hidden_subfields" : null
  },
  "type" : "workflow",
  "default" : null
}, {
  "id" : "072ce88d-62f2-604d-feab-f8199eeb40f7",
  "name" : "follow_up_type_simple",
  "label" : "Send a follow-up email",
  "required" : true,
  "locked" : true,
  "visibility" : {
    "controlling_field" : null,
    "controlling_value_regex" : null,
    "operator" : "NOT_EMPTY",
    "access" : {
      "operator" : "HAS_ALL",
      "scopes" : [ "email-access" ]
    },
    "hidden_subfields" : null
  },
  "type" : "boolean",
  "default" : false
}, {
  "id" : "fa108c7e-d78d-9edd-f015-f3d8e35fb790",
  "name" : "simple_email_for_live_id",
  "label" : "Email",
  "required" : false,
  "locked" : true,
  "visibility" : {
    "controlling_field" : "072ce88d-62f2-604d-feab-f8199eeb40f7",
    "controlling_value_regex" : "true",
    "operator" : "MATCHES_REGEX",
    "access" : null,
    "hidden_subfields" : null
  },
  "type" : "followupemail",
  "default" : null
}, {
  "id" : "82375ac5-e902-3628-b674-1eb8f5397c41",
  "name" : "sfdc_campaign",
  "label" : "Salesforce campaign",
  "required" : false,
  "locked" : false,
  "type" : "salesforcecampaign",
  "default" : null
} ]