[ {
  "id" : "744b2c8f-6fe9-0339-45e4-ebc7d273893b",
  "name" : "renamed_from_id",
  "label" : "Id",
  "required" : false,
  "locked" : true,
  "validation_regex" : "",
  "allow_new_line" : false,
  "show_emoji_picker" : false,
  "type" : "text",
  "default" : null
}, {
  "id" : "142a5479-7975-0350-d61e-ae109dc13f14",
  "name" : "content_settings",
  "label" : "Content Settings",
  "required" : false,
  "locked" : false,
  "children" : [ {
    "id" : "86772169-824f-ccc6-feb9-470487bf77ad",
    "name" : "tags",
    "label" : "Tags",
    "required" : false,
    "locked" : false,
    "validation_regex" : "",
    "allow_new_line" : false,
    "show_emoji_picker" : false,
    "type" : "text",
    "default" : "Our Case Studies"
  }, {
    "id" : "763120cf-05b2-a9a8-5fce-b69ba5b68b89",
    "name" : "title",
    "label" : "Title",
    "required" : false,
    "locked" : false,
    "validation_regex" : "",
    "allow_new_line" : false,
    "show_emoji_picker" : false,
    "type" : "text",
    "default" : "Discover how our solutions led to better business decisions."
  }, {
    "id" : "3bef262b-6497-40ef-f2db-6143571c4028",
    "name" : "title_color",
    "label" : "Title Color",
    "required" : false,
    "locked" : false,
    "type" : "color",
    "default" : {
      "color" : "#37BED8",
      "opacity" : 100
    }
  }, {
    "id" : "a420827a-d0c4-5328-28ef-a4a7d9b65422",
    "name" : "content",
    "label" : "Content",
    "required" : false,
    "locked" : false,
    "validation_regex" : "",
    "allow_new_line" : false,
    "show_emoji_picker" : false,
    "type" : "text",
    "default" : "Read our case studies on GCP data modernization to see how our solutions have been put to work."
  }, {
    "id" : "aa2a158a-080e-852f-4c91-c03d1953c098",
    "name" : "content_color",
    "label" : "Content Color",
    "required" : false,
    "locked" : false,
    "type" : "color",
    "default" : {
      "color" : "#343333",
      "opacity" : 100
    }
  }, {
    "id" : "5ebedace-372b-fc3e-7d7d-dea59a128d5e",
    "name" : "link_text",
    "label" : "Link Text",
    "required" : false,
    "locked" : false,
    "validation_regex" : "",
    "allow_new_line" : false,
    "show_emoji_picker" : false,
    "type" : "text",
    "default" : "See all CRM Case Studies"
  }, {
    "id" : "48f4ed92-43b7-4275-c51f-8949ca8398e3",
    "name" : "title_font_size",
    "label" : "Title Font Size",
    "required" : false,
    "locked" : true,
    "display" : "slider",
    "min" : 16,
    "max" : 60,
    "step" : 2,
    "type" : "number",
    "default" : null
  }, {
    "id" : "e1ac0a9a-bf64-c23c-9288-8bb14cde7ac8",
    "name" : "links_url",
    "label" : "Links Url",
    "required" : false,
    "locked" : false,
    "supported_types" : [ "EXTERNAL", "CONTENT", "FILE", "EMAIL_ADDRESS", "BLOG" ],
    "type" : "link",
    "default" : {
      "url" : {
        "type" : "CONTENT",
        "href" : null,
        "content_id" : 5893636662
      },
      "open_in_new_tab" : false,
      "no_follow" : false
    }
  }, {
    "id" : "d9bb64a0-a11c-b459-8c4b-a38b6e358f89",
    "name" : "item_options",
    "label" : "Item Options",
    "required" : false,
    "locked" : false,
    "children" : [ {
      "id" : "3b2cd134-ee7c-aad1-5b53-5d666fb9e844",
      "name" : "data_option",
      "label" : "Data Option",
      "required" : false,
      "locked" : false,
      "display" : "select",
      "choices" : [ [ "blog", "Use Blog's Post" ], [ "manual", "Manual" ] ],
      "type" : "choice",
      "default" : "blog"
    }, {
      "id" : "1de50de1-b826-4c26-9726-fafd4f7a8f93",
      "name" : "title_font_size",
      "label" : "Title Font Size",
      "required" : false,
      "locked" : true,
      "display" : "slider",
      "min" : 16,
      "max" : 32,
      "step" : 2,
      "type" : "number",
      "default" : null
    } ],
    "tab" : "CONTENT",
    "type" : "group",
    "default" : {
      "data_option" : "blog"
    }
  }, {
    "id" : "4312b73f-cc46-a7db-4380-c0410d91d784",
    "name" : "blog_content",
    "label" : "Blog Content",
    "required" : false,
    "locked" : false,
    "visibility" : {
      "controlling_field" : "3b2cd134-ee7c-aad1-5b53-5d666fb9e844",
      "controlling_value_regex" : "blog",
      "operator" : "EQUAL",
      "access" : null,
      "hidden_subfields" : null
    },
    "children" : [ {
      "id" : "d845093e-975b-a69f-d998-063f77154bfe",
      "name" : "blogs",
      "label" : "Blogs",
      "required" : false,
      "locked" : false,
      "type" : "blog",
      "default" : 39775928
    }, {
      "id" : "7a975434-7b08-9e50-c068-b9a4f9bf85cf",
      "name" : "link_text",
      "label" : "Link Text",
      "required" : false,
      "locked" : false,
      "validation_regex" : "",
      "allow_new_line" : false,
      "show_emoji_picker" : false,
      "type" : "text",
      "default" : "See More "
    } ],
    "tab" : "CONTENT",
    "type" : "group",
    "default" : {
      "blogs" : 39775928,
      "link_text" : "See More "
    }
  }, {
    "id" : "b58b7f4d-f79f-61bc-33a7-c607ce0fa3d0",
    "name" : "manual",
    "label" : "Manual Data",
    "required" : false,
    "locked" : false,
    "occurrence" : {
      "min" : null,
      "max" : 2,
      "sorting_label_field" : "48d860f1-d011-264e-569d-65fd6c78dbc1",
      "default" : 2
    },
    "visibility" : {
      "controlling_field" : "3b2cd134-ee7c-aad1-5b53-5d666fb9e844",
      "controlling_value_regex" : "manual",
      "operator" : "EQUAL",
      "access" : null,
      "hidden_subfields" : null
    },
    "children" : [ {
      "id" : "48d860f1-d011-264e-569d-65fd6c78dbc1",
      "name" : "page_field",
      "label" : "Page field",
      "required" : false,
      "locked" : false,
      "type" : "page",
      "default" : 12656209030
    }, {
      "id" : "e4e809b1-f47d-c7db-7a18-304c7b0b7346",
      "name" : "link_text",
      "label" : "Link Text",
      "required" : false,
      "locked" : false,
      "validation_regex" : "",
      "allow_new_line" : false,
      "show_emoji_picker" : false,
      "type" : "text",
      "default" : "See all CRM Case Studies "
    }, {
      "id" : "950320d4-b1f7-69f1-0fd5-2ba7a2e8967f",
      "name" : "open_link_in_new_tab_",
      "label" : "Open link in new tab?",
      "required" : false,
      "locked" : false,
      "type" : "boolean",
      "default" : false
    } ],
    "tab" : "CONTENT",
    "type" : "group",
    "default" : [ {
      "page_field" : 12656209030,
      "link_text" : "See all CRM Case Studies ",
      "boolean_field" : false
    }, {
      "page_field" : 12656209030,
      "link_text" : "See all CRM Case Studies ",
      "boolean_field" : false
    } ]
  } ],
  "tab" : "CONTENT",
  "type" : "group",
  "default" : {
    "tags" : "Our Case Studies",
    "title" : "Discover how our solutions led to better business decisions.",
    "title_color" : {
      "color" : "#37BED8",
      "opacity" : 100
    },
    "content" : "Read our case studies on GCP data modernization to see how our solutions have been put to work.",
    "content_color" : {
      "color" : "#343333",
      "opacity" : 100
    },
    "link_text" : "See all CRM Case Studies",
    "links_url" : {
      "url" : {
        "type" : "CONTENT",
        "href" : null,
        "content_id" : 5893636662
      },
      "open_in_new_tab" : false,
      "no_follow" : false
    },
    "item_options" : {
      "data_option" : "blog"
    },
    "blog_content" : {
      "blogs" : 39775928,
      "link_text" : "See More "
    },
    "manual" : [ {
      "page_field" : 12656209030,
      "link_text" : "See all CRM Case Studies ",
      "boolean_field" : false
    }, {
      "page_field" : 12656209030,
      "link_text" : "See all CRM Case Studies ",
      "boolean_field" : false
    } ]
  }
}, {
  "id" : "c3da41d4-a7d3-4238-66de-232c11ea1d5f",
  "name" : "styles",
  "label" : "Background Settings ",
  "required" : false,
  "locked" : false,
  "children" : [ {
    "id" : "8e37bcc0-30cf-403c-586d-fb32e63f74b8",
    "name" : "background_type",
    "label" : "Background Type",
    "required" : false,
    "locked" : false,
    "display" : "select",
    "choices" : [ [ "nf_bg-color", "Color" ], [ "nf_bg-gradient", "Gradient" ], [ "nf_bg-image", "Image" ] ],
    "type" : "choice",
    "default" : "nf_bg-color"
  }, {
    "id" : "3ad839b0-ed00-4e88-19aa-82f053b372c5",
    "name" : "background_color",
    "label" : "Background Color",
    "required" : false,
    "locked" : false,
    "visibility" : {
      "controlling_field" : "8e37bcc0-30cf-403c-586d-fb32e63f74b8",
      "controlling_value_regex" : "nf_bg-color",
      "operator" : "EQUAL",
      "access" : null,
      "hidden_subfields" : null
    },
    "type" : "color",
    "default" : {
      "color" : "#ECECEC",
      "opacity" : 100
    }
  }, {
    "id" : "73c4f17a-83b2-57cf-0e1a-aafccd9d22e2",
    "name" : "gradient_top_color",
    "label" : "Gradient Top Color",
    "required" : false,
    "locked" : false,
    "visibility" : {
      "controlling_field" : "8e37bcc0-30cf-403c-586d-fb32e63f74b8",
      "controlling_value_regex" : "nf_bg-gradient",
      "operator" : "EQUAL",
      "access" : null,
      "hidden_subfields" : null
    },
    "type" : "color",
    "default" : {
      "color" : "#ffffff",
      "opacity" : 50
    }
  }, {
    "id" : "75173f21-7d6e-8981-1069-9597fa98abc4",
    "name" : "gradient_bottom_color",
    "label" : "Gradient Bottom Color",
    "required" : false,
    "locked" : false,
    "visibility" : {
      "controlling_field" : "8e37bcc0-30cf-403c-586d-fb32e63f74b8",
      "controlling_value_regex" : "nf_bg-gradient",
      "operator" : "EQUAL",
      "access" : null,
      "hidden_subfields" : null
    },
    "type" : "color",
    "default" : {
      "color" : "#ffffff",
      "opacity" : 100
    }
  }, {
    "id" : "149775ed-f26a-0d13-f9a5-7da0036aee66",
    "name" : "background_image",
    "label" : "Background Image",
    "required" : false,
    "locked" : false,
    "visibility" : {
      "controlling_field" : "8e37bcc0-30cf-403c-586d-fb32e63f74b8",
      "controlling_value_regex" : "nf_bg-image",
      "operator" : "EQUAL",
      "access" : null,
      "hidden_subfields" : null
    },
    "responsive" : false,
    "resizable" : true,
    "type" : "image",
    "default" : {
      "src" : "https://cdn2.hubspot.net/hubfs/3894104/heroshot-servers.png",
      "alt" : "heroshot-servers",
      "width" : 1400,
      "height" : 895
    }
  }, {
    "id" : "ed91dc4c-3e71-08a3-042d-248c85d3f8b5",
    "name" : "add_overlay",
    "label" : "Add Overlay",
    "required" : false,
    "locked" : true,
    "visibility" : {
      "controlling_field" : "8e37bcc0-30cf-403c-586d-fb32e63f74b8",
      "controlling_value_regex" : "nf_bg-image",
      "operator" : "EQUAL",
      "access" : null,
      "hidden_subfields" : null
    },
    "type" : "boolean",
    "default" : false
  }, {
    "id" : "12c1ad6d-700e-a5f9-1e6d-7e5910eb7112",
    "name" : "overlay",
    "label" : "Overlay",
    "required" : false,
    "locked" : true,
    "visibility" : {
      "controlling_field" : "8e37bcc0-30cf-403c-586d-fb32e63f74b8",
      "controlling_value_regex" : "nf_bg-image",
      "operator" : "EQUAL",
      "access" : null,
      "hidden_subfields" : null
    },
    "children" : [ {
      "id" : "3d1f8249-1ff0-e39d-3d8b-ab336231b2ca",
      "name" : "overlay_color",
      "label" : "Overlay Color",
      "required" : false,
      "locked" : true,
      "visibility" : {
        "controlling_field" : "ed91dc4c-3e71-08a3-042d-248c85d3f8b5",
        "controlling_value_regex" : "true",
        "operator" : "EQUAL",
        "access" : null,
        "hidden_subfields" : null
      },
      "type" : "color",
      "default" : {
        "color" : "#ffffff",
        "opacity" : 100
      }
    } ],
    "tab" : "CONTENT",
    "type" : "group",
    "default" : {
      "overlay_color" : {
        "color" : "#ffffff",
        "opacity" : 100
      }
    }
  }, {
    "id" : "cf44da5a-d1bd-0c86-c716-31c2a3be9e4d",
    "name" : "background_position",
    "label" : "Background Position",
    "required" : false,
    "locked" : false,
    "visibility" : {
      "controlling_field" : "8e37bcc0-30cf-403c-586d-fb32e63f74b8",
      "controlling_value_regex" : "nf_bg-image",
      "operator" : "EQUAL",
      "access" : null,
      "hidden_subfields" : null
    },
    "display" : "select",
    "choices" : [ [ "center top", "Top Middle" ], [ "center", "Center" ], [ "top right", "Top Right" ], [ "right center", "Right Middle" ], [ "right bottom", "Bottom Right" ], [ "left top", "Top Left" ], [ "left center", "Left Middle" ], [ "left bottom", "Bottom Left" ], [ "custom", "Custom" ] ],
    "type" : "choice",
    "default" : null
  }, {
    "id" : "42b58938-c84f-f318-85a7-9dfe5d56f3b8",
    "name" : "x_position",
    "label" : "Custom left/right position",
    "required" : false,
    "locked" : false,
    "visibility" : {
      "controlling_field" : "8e37bcc0-30cf-403c-586d-fb32e63f74b8",
      "controlling_value_regex" : "nf_bg-image",
      "operator" : "EQUAL",
      "access" : null,
      "hidden_subfields" : null
    },
    "display" : "text",
    "min" : 0,
    "max" : 100,
    "step" : 1,
    "type" : "number",
    "default" : 50
  }, {
    "id" : "6bfd5f18-4d7b-1d9a-4553-229bbe037d0a",
    "name" : "y_position",
    "label" : "Custom top/bottom position",
    "required" : false,
    "locked" : false,
    "visibility" : {
      "controlling_field" : "8e37bcc0-30cf-403c-586d-fb32e63f74b8",
      "controlling_value_regex" : "nf_bg-image",
      "operator" : "EQUAL",
      "access" : null,
      "hidden_subfields" : null
    },
    "display" : "text",
    "min" : 0,
    "max" : 100,
    "step" : 1,
    "type" : "number",
    "default" : 50
  }, {
    "id" : "8839cf1b-94e9-8bf1-1821-0041a0cbc5b6",
    "name" : "height",
    "label" : "Height",
    "required" : false,
    "locked" : false,
    "display" : "text",
    "min" : 0,
    "max" : 1024,
    "step" : 1,
    "type" : "number",
    "default" : 500
  } ],
  "tab" : "CONTENT",
  "type" : "group",
  "default" : {
    "background_type" : "nf_bg-color",
    "background_color" : {
      "color" : "#ECECEC",
      "opacity" : 100
    },
    "gradient_top_color" : {
      "color" : "#ffffff",
      "opacity" : 50
    },
    "gradient_bottom_color" : {
      "color" : "#ffffff",
      "opacity" : 100
    },
    "background_image" : {
      "src" : "https://cdn2.hubspot.net/hubfs/3894104/heroshot-servers.png",
      "alt" : "heroshot-servers",
      "width" : 1400,
      "height" : 895
    },
    "add_overlay" : false,
    "overlay" : {
      "overlay_color" : {
        "color" : "#ffffff",
        "opacity" : 100
      }
    },
    "x_position" : 50,
    "y_position" : 50,
    "height" : 500
  }
}, {
  "id" : "31bd25c5-5dd2-e5a6-4a5d-c72a5d6c6e34",
  "name" : "general_settings",
  "label" : "General Settings",
  "required" : false,
  "locked" : false,
  "children" : [ {
    "id" : "8c0eb6e9-4f02-78e2-14e4-174c0bfcf8d8",
    "name" : "adjust_section_height_and_spacing",
    "label" : "Adjust Section Height and Spacing",
    "required" : false,
    "locked" : false,
    "children" : [ {
      "id" : "6bcdb4b5-29be-c8b7-bd26-0d44149b059b",
      "name" : "padding_top",
      "label" : "Padding Top",
      "required" : false,
      "locked" : false,
      "display" : "slider",
      "min" : 0,
      "max" : 1000,
      "step" : 1,
      "type" : "number",
      "default" : 70
    }, {
      "id" : "f10e2d9b-ce38-7ddc-aecd-9b0ba7ba011c",
      "name" : "padding_bottom",
      "label" : "Padding Bottom",
      "required" : false,
      "locked" : false,
      "display" : "slider",
      "min" : 0,
      "max" : 1000,
      "step" : 1,
      "type" : "number",
      "default" : 70
    } ],
    "tab" : "CONTENT",
    "type" : "group",
    "default" : {
      "padding_top" : 70,
      "padding_bottom" : 70
    }
  } ],
  "tab" : "CONTENT",
  "type" : "group",
  "default" : {
    "adjust_section_height_and_spacing" : {
      "padding_top" : 70,
      "padding_bottom" : 70
    }
  }
} ]