{
  "enable_form_content.default" : {
    "message" : "",
    "description" : null,
    "placeholders" : null
  },
  "enable_form_content.help_text" : {
    "message" : "",
    "description" : null,
    "placeholders" : null
  },
  "enable_form_content.label" : {
    "message" : "Boolean field",
    "description" : null,
    "placeholders" : null
  },
  "follow_up_type_automation.label" : {
    "message" : "Agregar a workflow",
    "description" : null,
    "placeholders" : null
  },
  "follow_up_type_simple.label" : {
    "message" : "Enviar un correo electrónico de seguimiento",
    "description" : null,
    "placeholders" : null
  },
  "form.default.message" : {
    "message" : "Gracias por enviar el formulario.",
    "description" : null,
    "placeholders" : null
  },
  "form.label" : {
    "message" : "Formulario",
    "description" : null,
    "placeholders" : null
  },
  "form_follow_ups_workflow_id.label" : {
    "message" : "Workflow",
    "description" : null,
    "placeholders" : null
  },
  "image_icon.default.alt" : {
    "message" : "",
    "description" : null,
    "placeholders" : null
  },
  "image_icon.help_text" : {
    "message" : "",
    "description" : null,
    "placeholders" : null
  },
  "image_icon.label" : {
    "message" : "Image field",
    "description" : null,
    "placeholders" : null
  },
  "notifications_are_overridden.label" : {
    "message" : "Enviar notificaciones de formulario a direcciones de correo  especificadas en lugar de los valores predeterminados del formulario",
    "description" : null,
    "placeholders" : null
  },
  "notifications_override_email_addresses.label" : {
    "message" : "Direcciones de correo",
    "description" : null,
    "placeholders" : null
  },
  "padding_bottom.default" : {
    "message" : "",
    "description" : null,
    "placeholders" : null
  },
  "padding_bottom.help_text" : {
    "message" : "",
    "description" : null,
    "placeholders" : null
  },
  "padding_bottom.label" : {
    "message" : "Number field",
    "description" : null,
    "placeholders" : null
  },
  "padding_top.default" : {
    "message" : "",
    "description" : null,
    "placeholders" : null
  },
  "padding_top.help_text" : {
    "message" : "",
    "description" : null,
    "placeholders" : null
  },
  "padding_top.label" : {
    "message" : "Number field",
    "description" : null,
    "placeholders" : null
  },
  "section_height.default" : {
    "message" : "",
    "description" : null,
    "placeholders" : null
  },
  "section_height.help_text" : {
    "message" : "",
    "description" : null,
    "placeholders" : null
  },
  "section_height.label" : {
    "message" : "Number field",
    "description" : null,
    "placeholders" : null
  },
  "section_id.default" : {
    "message" : "",
    "description" : null,
    "placeholders" : null
  },
  "section_id.help_text" : {
    "message" : "",
    "description" : null,
    "placeholders" : null
  },
  "section_id.label" : {
    "message" : "Text field",
    "description" : null,
    "placeholders" : null
  },
  "section_id.placeholder" : {
    "message" : "",
    "description" : null,
    "placeholders" : null
  },
  "section_id.validation_regex" : {
    "message" : "",
    "description" : null,
    "placeholders" : null
  },
  "sfdc_campaign.label" : {
    "message" : "Campaña de Salesforce",
    "description" : null,
    "placeholders" : null
  },
  "simple_email_for_live_id.label" : {
    "message" : "Correo electrónico",
    "description" : null,
    "placeholders" : null
  },
  "sub_title.default" : {
    "message" : "",
    "description" : null,
    "placeholders" : null
  },
  "sub_title.help_text" : {
    "message" : "",
    "description" : null,
    "placeholders" : null
  },
  "sub_title.label" : {
    "message" : "Rich text field",
    "description" : null,
    "placeholders" : null
  },
  "text_content.default" : {
    "message" : "",
    "description" : null,
    "placeholders" : null
  },
  "text_content.enable_rich_text_content.default" : {
    "message" : "",
    "description" : null,
    "placeholders" : null
  },
  "text_content.enable_rich_text_content.help_text" : {
    "message" : "",
    "description" : null,
    "placeholders" : null
  },
  "text_content.enable_rich_text_content.label" : {
    "message" : "Enable Rich Text Content",
    "description" : null,
    "placeholders" : null
  },
  "text_content.help_text" : {
    "message" : "",
    "description" : null,
    "placeholders" : null
  },
  "text_content.label" : {
    "message" : "Field group",
    "description" : null,
    "placeholders" : null
  },
  "text_content.richtext_content.default" : {
    "message" : "",
    "description" : null,
    "placeholders" : null
  },
  "text_content.richtext_content.help_text" : {
    "message" : "",
    "description" : null,
    "placeholders" : null
  },
  "text_content.richtext_content.label" : {
    "message" : "Rich text field",
    "description" : null,
    "placeholders" : null
  },
  "title.label" : {
    "message" : "Título del formulario",
    "description" : null,
    "placeholders" : null
  }
}