{
  "content_tags" : [ ],
  "css_assets" : [ {
    "name" : "hamburger-menu.css",
    "autoload" : true,
    "path" : "/VPB/static/plugins/hamburger-menu/hamburger-menu.css"
  }, {
    "name" : "mmenu-light.css",
    "autoload" : true,
    "path" : "/VPB/static/plugins/mmenu-light/mmenu-light.css"
  } ],
  "external_js" : [ ],
  "extra_classes" : "",
  "global" : false,
  "host_template_types" : [ "PAGE", "BLOG_POST", "BLOG_LISTING" ],
  "js_assets" : [ {
    "name" : "mmenu-light.js",
    "autoload" : true,
    "path" : "/VPB/static/plugins/mmenu-light/mmenu-light.js"
  } ],
  "other_assets" : [ ],
  "placement_rules" : [ ],
  "smart_type" : "NOT_SMART",
  "module_id" : 8365840,
  "is_available_for_new_content" : true
}